Get Route — get_routes • strava
…
#> 
#> $map
#> # A tibble: 1 × 4
#>   id                   summary_polyline                  resource_state polyline
#>   <chr>                <chr>                             <chr>          <chr>   
#> 1 r2964569522013822534 "_vsmEdt|mUDJ\\xFNpAh@|Cp@fGTvAH… 3              "_vsmEd…
#> 
#> $map_urls
#> # A tibble: 1 × 2
#>   url                                                                 retina_url
#>   <chr>                                                               <chr>     
#> 1 https://d3o5xota0a1fcr.cloudfront.net/v6/maps/IGMCQLZJENAVKRWSMRHM… https://d…
#> 
#> $segments
#> # A tibble: 200 × 20
#>    segment     id resource_state name       activity_type distance average_grade
#>      <int>  <int>          <int> <chr>      <chr>            <dbl>         <dbl>
#>  1       1 625219              2 SA River … Ride             8206.          -0.1
#>  2       1 625219              2 SA River … Ride             8206.          -0.1
#>  3       1 625219              2 SA River … Ride             8206.          -0.1
#>  4       1 625219              2 SA River … Ride             8206.          -0.1
#>  5       2 854077              2 Lincoln t… Ride             2089.          -0.4
#>  6       2 854077              2 Lincoln t… Ride             2089.          -0.4
#>  7       2 854077              2 Lincoln t… Ride             2089.          -0.4
#>  8       2 854077              2 Lincoln t… Ride             2089.          -0.4
#>  9       3 936789              2 Santa Ana… Ride            13285.          -0.3
#> 10       3 936789              2 Santa Ana… Ride            13285.          -0.3
#> # … with 190 more rows, and 13 more variables: maximum_grade <dbl>,
#> #   elevation_high <dbl>, elevation_low <dbl>, start_latlng <dbl>,
#> #   end_latlng <dbl>, elevation_profile <lgl>, climb_category <int>,
#> #   city <chr>, state <chr>, country <chr>, private <lgl>, hazardous <lgl>,
#> #   starred <lgl>
…
